player 100 120 40 10 90 4 20
obstacle 345 350 30 250
obstacle 235 460 110 30
obstacle 375 460 110 30
key_chest 280 400 50 50 100
key_chest 390 400 50 50 100
key_chest 280 500 50 50 100
key_chest 390 500 50 50 100
enemy 150 850 30 11
enemy 600 850 30 11
enemy 600 110 30 11