player 360 110 35 10 70 2 20
obstacle 150 260 100 50
obstacle 480 260 100 50
obstacle 150 590 100 50
obstacle 480 590 100 50
key_chest 290 370 100 100 200
key_chest 290 720 100 100 200
chest 250 270 230 30 100
chest 250 600 230 30 100
enemy 100 450 30 11
enemy 100 810 30 11
enemy 600 450 30 12
enemy 600 810 30 12