player 360 800 35 10 40 3 20
key_chest 335 317 50 50 50
key_chest 185 317 50 50 50
key_chest 185 467 50 50 50
key_chest 185 617 50 50 50
key_chest 335 617 50 50 50
key_chest 485 617 50 50 50
key_chest 485 467 50 50 50
key_chest 485 317 50 50 50
key_chest 335 467 50 50 50
enemy 92 467 30 16
enemy 628 467 30 16
enemy 360 100 30 16
